module gitlab.com/devcrimson/stars-rating-parser

go 1.18

require (
	github.com/PuerkitoBio/goquery v1.8.1
	github.com/lib/pq v1.10.9
)

require (
	github.com/andybalholm/cascadia v1.3.1 // indirect
	golang.org/x/net v0.7.0 // indirect
)
